Tidying CrmPackClass objects — tidy • crmPack
…
#> 10 0.64920718 3.245124e-01 0.8903897
#> 11 0.70340503 3.645974e-01 0.9376995
#> 
#> 
#> $stop_report
#> # A tibble: 1 × 1
#>   stop_report[,NA] [,NA] [,"≥ 3 cohorts dosed"] [,"P(0.2 ≤ prob(DLE | NBD) ≤ 0…¹
#>   <lgl>            <lgl> <lgl>                  <lgl>                           
#> 1 TRUE             TRUE  TRUE                   TRUE                            
#> # ℹ abbreviated name: ¹​[,"P(0.2 ≤ prob(DLE | NBD) ≤ 0.35) ≥ 0.5"]
#> # ℹ 1 more variable: stop_report[5] <lgl>
#> 
#> $data
#> $data[[1]]
#> # A tibble: 22 × 9
#>       ID Cohort  Dose XLevel Tox   Placebo  NObs NGrid DoseGrid  
#>    <int>  <int> <dbl>  <int> <lgl> <lgl>   <int> <int> <list>    
#>  1     1      1     3      2 FALSE FALSE      22    11 <dbl [11]>
#>  2     2      2     5      3 FALSE FALSE      22    11 <dbl [11]>
#>  3     3      3    10      4 FALSE FALSE      22    11 <dbl [11]>
#>  4     4      4    20      6 TRUE  FALSE      22    11 <dbl [11]>
#>  5     5      5    15      5 FALSE FALSE      22    11 <dbl [11]>
#>  6     6      5    15      5 FALSE FALSE      22    11 <dbl [11]>
#>  7     7      5    15      5 FALSE FALSE      22    11 <dbl [11]>
#>  8     8      6    25      7 FALSE FALSE      22    11 <dbl [11]>
#>  9     9      6    25      7 TRUE  FALSE      22    11 <dbl [11]>
#> 10    10      6    25      7 FALSE FALSE      22    11 <dbl [11]>
#> # ℹ 12 more rows
…
emptydata <- Data(doseGrid = c(1, 3, 5, 10, 15, 20, 25, 40, 50, 80, 100))

model <- LogisticLogNormal(
  mean = c(-0.85, 1),
  cov =
    matrix(c(1, -0.5, -0.5, 1),
      nrow = 2
    ),
  ref_dose = 56
)

samples <- mcmc(emptydata, model, options)
samples %>% tidy()
#> $data
#> # A tibble: 2,000 × 10
#>    Iteration Chain alpha0 alpha1 nChains nParameters nIterations nBurnin nThin
#>        <int> <int>  <dbl>  <dbl>   <int>       <int>       <int>   <int> <int>
#>  1         1     1 -1.25    6.04       1           1        2100     100     1
#>  2         2     1 -1.28    5.58       1           1        2100     100     1
#>  3         3     1 -0.906   1.01       1           1        2100     100     1
#>  4         4     1 -1.29    1.68       1           1        2100     100     1
#>  5         5     1 -2.50    8.91       1           1        2100     100     1
#>  6         6     1 -0.903   1.71       1           1        2100     100     1
#>  7         7     1 -0.426  10.1        1           1        2100     100     1
#>  8         8     1 -1.03    1.96       1           1        2100     100     1
#>  9         9     1 -1.03    3.53       1           1        2100     100     1
#> 10        10     1  0.475   1.41       1           1        2100     100     1
#> # ℹ 1,990 more rows
#> # ℹ 1 more variable: parallel <lgl>
…
