…
emptydata <- Data(doseGrid = c(1, 3, 5, 10, 15, 20, 25, 40, 50, 80, 100))

model <- LogisticLogNormal(
  mean = c(-0.85, 1),
  cov = matrix(c(1, -0.5, -0.5, 1), nrow = 2),
  ref_dose = 56
)

samples <- mcmc(emptydata, model, options)
samples %>% tidy()
#> $data
#> # A tibble: 2,000 × 10
#>    Iteration Chain alpha0 alpha1 nChains nParameters nIterations nBurnin nThin
#>        <int> <int>  <dbl>  <dbl>   <int>       <int>       <int>   <int> <int>
#>  1         1     1 -0.259  1.38        1           1        2100     100     1
#>  2         2     1 -0.361  4.93        1           1        2100     100     1
#>  3         3     1  0.904  0.598       1           1        2100     100     1
#>  4         4     1 -0.924  0.742       1           1        2100     100     1
#>  5         5     1  0.162  4.44        1           1        2100     100     1
#>  6         6     1  0.599  0.548       1           1        2100     100     1
#>  7         7     1 -2.45   4.82        1           1        2100     100     1
#>  8         8     1  0.660  2.90        1           1        2100     100     1
#>  9         9     1 -1.88   3.86        1           1        2100     100     1
#> 10        10     1 -0.574  4.60        1           1        2100     100     1
#> # ℹ 1,990 more rows
#> # ℹ 1 more variable: parallel <lgl>
…
