…
emptydata <- Data(doseGrid = c(1, 3, 5, 10, 15, 20, 25, 40, 50, 80, 100))

model <- LogisticLogNormal(
  mean = c(-0.85, 1),
  cov =
    matrix(c(1, -0.5, -0.5, 1),
      nrow = 2
    ),
  ref_dose = 56
)
samples <- mcmc(emptydata, model, options)
tidySamples <- samples %>% tidy()
tidySamples %>% head()
#> $data
#> # A tibble: 2,000 × 10
#>    Iteration Chain  alpha0 alpha1 nChains nParameters nIterations nBurnin nThin
#>        <int> <int>   <dbl>  <dbl>   <int>       <int>       <int>   <int> <int>
#>  1         1     1 -2.99   18.8         1           1        2100     100     1
#>  2         2     1 -1.77    1.09        1           1        2100     100     1
#>  3         3     1 -1.16    1.93        1           1        2100     100     1
#>  4         4     1 -2.38    7.62        1           1        2100     100     1
#>  5         5     1 -0.666   0.455       1           1        2100     100     1
#>  6         6     1 -0.0824  3.29        1           1        2100     100     1
#>  7         7     1  0.109   4.17        1           1        2100     100     1
#>  8         8     1 -0.0834  0.574       1           1        2100     100     1
#>  9         9     1  0.191   1.67        1           1        2100     100     1
#> 10        10     1 -0.707   2.38        1           1        2100     100     1
#> # ℹ 1,990 more rows
#> # ℹ 1 more variable: parallel <lgl>
…
